<?xml version="1.0" encoding="UTF-8"?>
<Project>
   <description></description>
   <name>katalon</name>
   <tag></tag>
   <UUID>18fedd04-9574-4e35-ac6a-2ee0d1cdd4ce</UUID>
   <migratedVersion>5.4.0</migratedVersion>
   <pageLoadTimeout>0</pageLoadTimeout>
</Project>
